{"frames": [

{
	"filename": "attack_01",
	"frame": {"x":0,"y":0,"w":80,"h":88},
	"rotated": false,
	"trimmed": false,
	"spriteSourceSize": {"x":0,"y":0,"w":80,"h":88},
	"sourceSize": {"w":80,"h":88},
	"pivot": {"x":0.46875,"y":0.448864}
},
{
	"filename": "attack_02",
	"frame": {"x":80,"y":0,"w":70,"h":77},
	"rotated": false,
	"trimmed": false,
	"spriteSourceSize": {"x":0,"y":0,"w":70,"h":77},
	"sourceSize": {"w":70,"h":77},
	"pivot": {"x":0.478571,"y":0.454545}
},
{
	"filename": "attack_03",
	"frame": {"x":150,"y":0,"w":70,"h":88},
	"rotated": false,
	"trimmed": false,
	"spriteSourceSize": {"x":0,"y":0,"w":70,"h":88},
	"sourceSize": {"w":70,"h":88},
	"pivot": {"x":0.485714,"y":0.5}
},
{
	"filename": "attack_04",
	"frame": {"x":220,"y":0,"w":70,"h":99},
	"rotated": false,
	"trimmed": false,
	"spriteSourceSize": {"x":0,"y":0,"w":70,"h":99},
	"sourceSize": {"w":70,"h":99},
	"pivot": {"x":0.471429,"y":0.454545}
},
{
	"filename": "attack_effect",
	"frame": {"x":290,"y":0,"w":40,"h":88},
	"rotated": false,
	"trimmed": false,
	"spriteSourceSize": {"x":0,"y":0,"w":40,"h":88},
	"sourceSize": {"w":40,"h":88},
	"pivot": {"x":0.3875,"y":0.5}
},
{
	"filename": "attack_up_01",
	"frame": {"x":330,"y":0,"w":60,"h":77},
	"rotated": false,
	"trimmed": false,
	"spriteSourceSize": {"x":0,"y":0,"w":60,"h":77},
	"sourceSize": {"w":60,"h":77},
	"pivot": {"x":0.483333,"y":0.5}
},
{
	"filename": "attack_up_02",
	"frame": {"x":390,"y":0,"w":60,"h":77},
	"rotated": false,
	"trimmed": false,
	"spriteSourceSize": {"x":0,"y":0,"w":60,"h":77},
	"sourceSize": {"w":60,"h":77},
	"pivot": {"x":0.491667,"y":0.474026}
},
{
	"filename": "attack_up_03",
	"frame": {"x":450,"y":0,"w":70,"h":88},
	"rotated": false,
	"trimmed": false,
	"spriteSourceSize": {"x":0,"y":0,"w":70,"h":88},
	"sourceSize": {"w":70,"h":88},
	"pivot": {"x":0.485714,"y":0.454545}
},
{
	"filename": "attack_up_04",
	"frame": {"x":520,"y":0,"w":70,"h":88},
	"rotated": false,
	"trimmed": false,
	"spriteSourceSize": {"x":0,"y":0,"w":70,"h":88},
	"sourceSize": {"w":70,"h":88},
	"pivot": {"x":0.485714,"y":0.454545}
},
{
	"filename": "bell_01",
	"frame": {"x":590,"y":0,"w":30,"h":44},
	"rotated": false,
	"trimmed": false,
	"spriteSourceSize": {"x":0,"y":0,"w":30,"h":44},
	"sourceSize": {"w":30,"h":44},
	"pivot": {"x":0.383333,"y":0.431818}
},
{
	"filename": "bell_02",
	"frame": {"x":620,"y":0,"w":30,"h":44},
	"rotated": false,
	"trimmed": false,
	"spriteSourceSize": {"x":0,"y":0,"w":30,"h":44},
	"sourceSize": {"w":30,"h":44},
	"pivot": {"x":0.383333,"y":0.431818}
},
{
	"filename": "dying",
	"frame": {"x":650,"y":0,"w":90,"h":66},
	"rotated": false,
	"trimmed": false,
	"spriteSourceSize": {"x":0,"y":0,"w":90,"h":66},
	"sourceSize": {"w":90,"h":66},
	"pivot": {"x":0.45,"y":0.462121}
},
{
	"filename": "hurt",
	"frame": {"x":740,"y":0,"w":60,"h":88},
	"rotated": false,
	"trimmed": false,
	"spriteSourceSize": {"x":0,"y":0,"w":60,"h":88},
	"sourceSize": {"w":60,"h":88},
	"pivot": {"x":0.491667,"y":0.5}
},
{
	"filename": "hurt_up",
	"frame": {"x":800,"y":0,"w":60,"h":88},
	"rotated": false,
	"trimmed": false,
	"spriteSourceSize": {"x":0,"y":0,"w":60,"h":88},
	"sourceSize": {"w":60,"h":88},
	"pivot": {"x":0.466667,"y":0.482955}
},
{
	"filename": "stand_01",
	"frame": {"x":860,"y":0,"w":60,"h":88},
	"rotated": false,
	"trimmed": false,
	"spriteSourceSize": {"x":0,"y":0,"w":60,"h":88},
	"sourceSize": {"w":60,"h":88},
	"pivot": {"x":0.45,"y":0.5}
},
{
	"filename": "stand_02",
	"frame": {"x":920,"y":0,"w":70,"h":88},
	"rotated": false,
	"trimmed": false,
	"spriteSourceSize": {"x":0,"y":0,"w":70,"h":88},
	"sourceSize": {"w":70,"h":88},
	"pivot": {"x":0.492857,"y":0.5}
},
{
	"filename": "stand_03",
	"frame": {"x":990,"y":0,"w":70,"h":88},
	"rotated": false,
	"trimmed": false,
	"spriteSourceSize": {"x":0,"y":0,"w":70,"h":88},
	"sourceSize": {"w":70,"h":88},
	"pivot": {"x":0.478571,"y":0.5}
},
{
	"filename": "stand_04",
	"frame": {"x":1060,"y":0,"w":70,"h":88},
	"rotated": false,
	"trimmed": false,
	"spriteSourceSize": {"x":0,"y":0,"w":70,"h":88},
	"sourceSize": {"w":70,"h":88},
	"pivot": {"x":0.485714,"y":0.5}
},
{
	"filename": "stand_05",
	"frame": {"x":1130,"y":0,"w":70,"h":88},
	"rotated": false,
	"trimmed": false,
	"spriteSourceSize": {"x":0,"y":0,"w":70,"h":88},
	"sourceSize": {"w":70,"h":88},
	"pivot": {"x":0.478571,"y":0.5}
},
{
	"filename": "stand_06",
	"frame": {"x":1200,"y":0,"w":70,"h":88},
	"rotated": false,
	"trimmed": false,
	"spriteSourceSize": {"x":0,"y":0,"w":70,"h":88},
	"sourceSize": {"w":70,"h":88},
	"pivot": {"x":0.492857,"y":0.5}
},
{
	"filename": "stand_up_01",
	"frame": {"x":0,"y":99,"w":50,"h":88},
	"rotated": false,
	"trimmed": false,
	"spriteSourceSize": {"x":0,"y":0,"w":50,"h":88},
	"sourceSize": {"w":50,"h":88},
	"pivot": {"x":0.42,"y":0.488636}
},
{
	"filename": "stand_up_02",
	"frame": {"x":50,"y":99,"w":60,"h":88},
	"rotated": false,
	"trimmed": false,
	"spriteSourceSize": {"x":0,"y":0,"w":60,"h":88},
	"sourceSize": {"w":60,"h":88},
	"pivot": {"x":0.45,"y":0.488636}
},
{
	"filename": "stand_up_03",
	"frame": {"x":110,"y":99,"w":60,"h":88},
	"rotated": false,
	"trimmed": false,
	"spriteSourceSize": {"x":0,"y":0,"w":60,"h":88},
	"sourceSize": {"w":60,"h":88},
	"pivot": {"x":0.45,"y":0.488636}
},
{
	"filename": "stand_up_04",
	"frame": {"x":170,"y":99,"w":60,"h":88},
	"rotated": false,
	"trimmed": false,
	"spriteSourceSize": {"x":0,"y":0,"w":60,"h":88},
	"sourceSize": {"w":60,"h":88},
	"pivot": {"x":0.458333,"y":0.488636}
},
{
	"filename": "stand_up_05",
	"frame": {"x":230,"y":99,"w":60,"h":88},
	"rotated": false,
	"trimmed": false,
	"spriteSourceSize": {"x":0,"y":0,"w":60,"h":88},
	"sourceSize": {"w":60,"h":88},
	"pivot": {"x":0.45,"y":0.488636}
},
{
	"filename": "stand_up_06",
	"frame": {"x":290,"y":99,"w":60,"h":88},
	"rotated": false,
	"trimmed": false,
	"spriteSourceSize": {"x":0,"y":0,"w":60,"h":88},
	"sourceSize": {"w":60,"h":88},
	"pivot": {"x":0.458333,"y":0.488636}
},
{
	"filename": "walk_01",
	"frame": {"x":350,"y":99,"w":60,"h":88},
	"rotated": false,
	"trimmed": false,
	"spriteSourceSize": {"x":0,"y":0,"w":60,"h":88},
	"sourceSize": {"w":60,"h":88},
	"pivot": {"x":0.45,"y":0.477273}
},
{
	"filename": "walk_02",
	"frame": {"x":410,"y":99,"w":60,"h":88},
	"rotated": false,
	"trimmed": false,
	"spriteSourceSize": {"x":0,"y":0,"w":60,"h":88},
	"sourceSize": {"w":60,"h":88},
	"pivot": {"x":0.475,"y":0.465909}
},
{
	"filename": "walk_03",
	"frame": {"x":470,"y":99,"w":60,"h":88},
	"rotated": false,
	"trimmed": false,
	"spriteSourceSize": {"x":0,"y":0,"w":60,"h":88},
	"sourceSize": {"w":60,"h":88},
	"pivot": {"x":0.475,"y":0.465909}
},
{
	"filename": "walk_04",
	"frame": {"x":530,"y":99,"w":60,"h":88},
	"rotated": false,
	"trimmed": false,
	"spriteSourceSize": {"x":0,"y":0,"w":60,"h":88},
	"sourceSize": {"w":60,"h":88},
	"pivot": {"x":0.483333,"y":0.465909}
},
{
	"filename": "walk_05",
	"frame": {"x":590,"y":99,"w":60,"h":88},
	"rotated": false,
	"trimmed": false,
	"spriteSourceSize": {"x":0,"y":0,"w":60,"h":88},
	"sourceSize": {"w":60,"h":88},
	"pivot": {"x":0.45,"y":0.488636}
},
{
	"filename": "walk_06",
	"frame": {"x":650,"y":99,"w":70,"h":77},
	"rotated": false,
	"trimmed": false,
	"spriteSourceSize": {"x":0,"y":0,"w":70,"h":77},
	"sourceSize": {"w":70,"h":77},
	"pivot": {"x":0.492857,"y":0.480519}
},
{
	"filename": "walk_07",
	"frame": {"x":720,"y":99,"w":70,"h":77},
	"rotated": false,
	"trimmed": false,
	"spriteSourceSize": {"x":0,"y":0,"w":70,"h":77},
	"sourceSize": {"w":70,"h":77},
	"pivot": {"x":0.485714,"y":0.480519}
},
{
	"filename": "walk_08",
	"frame": {"x":790,"y":99,"w":70,"h":77},
	"rotated": false,
	"trimmed": false,
	"spriteSourceSize": {"x":0,"y":0,"w":70,"h":77},
	"sourceSize": {"w":70,"h":77},
	"pivot": {"x":0.485714,"y":0.487013}
},
{
	"filename": "walk_up_01",
	"frame": {"x":860,"y":99,"w":50,"h":88},
	"rotated": false,
	"trimmed": false,
	"spriteSourceSize": {"x":0,"y":0,"w":50,"h":88},
	"sourceSize": {"w":50,"h":88},
	"pivot": {"x":0.42,"y":0.465909}
},
{
	"filename": "walk_up_02",
	"frame": {"x":910,"y":99,"w":50,"h":88},
	"rotated": false,
	"trimmed": false,
	"spriteSourceSize": {"x":0,"y":0,"w":50,"h":88},
	"sourceSize": {"w":50,"h":88},
	"pivot": {"x":0.49,"y":0.448864}
},
{
	"filename": "walk_up_03",
	"frame": {"x":960,"y":99,"w":50,"h":88},
	"rotated": false,
	"trimmed": false,
	"spriteSourceSize": {"x":0,"y":0,"w":50,"h":88},
	"sourceSize": {"w":50,"h":88},
	"pivot": {"x":0.46,"y":0.448864}
},
{
	"filename": "walk_up_04",
	"frame": {"x":1010,"y":99,"w":50,"h":88},
	"rotated": false,
	"trimmed": false,
	"spriteSourceSize": {"x":0,"y":0,"w":50,"h":88},
	"sourceSize": {"w":50,"h":88},
	"pivot": {"x":0.45,"y":0.460227}
},
{
	"filename": "walk_up_05",
	"frame": {"x":1060,"y":99,"w":50,"h":88},
	"rotated": false,
	"trimmed": false,
	"spriteSourceSize": {"x":0,"y":0,"w":50,"h":88},
	"sourceSize": {"w":50,"h":88},
	"pivot": {"x":0.42,"y":0.488636}
},
{
	"filename": "walk_up_06",
	"frame": {"x":1110,"y":99,"w":60,"h":88},
	"rotated": false,
	"trimmed": false,
	"spriteSourceSize": {"x":0,"y":0,"w":60,"h":88},
	"sourceSize": {"w":60,"h":88},
	"pivot": {"x":0.433333,"y":0.460227}
},
{
	"filename": "walk_up_07",
	"frame": {"x":1170,"y":99,"w":60,"h":88},
	"rotated": false,
	"trimmed": false,
	"spriteSourceSize": {"x":0,"y":0,"w":60,"h":88},
	"sourceSize": {"w":60,"h":88},
	"pivot": {"x":0.433333,"y":0.454545}
},
{
	"filename": "walk_up_08",
	"frame": {"x":1230,"y":99,"w":60,"h":88},
	"rotated": false,
	"trimmed": false,
	"spriteSourceSize": {"x":0,"y":0,"w":60,"h":88},
	"sourceSize": {"w":60,"h":88},
	"pivot": {"x":0.433333,"y":0.454545}
}],
"meta": {
	"app": "http://www.codeandweb.com/texturepacker",
	"version": "1.0",
	"image": "moonlight_flower",
	"format": "RGBA8888",
	"size": {"w":1290,"h":187},
	"scale": "1",
	"smartupdate": "$TexturePacker:SmartUpdate:ef4a810ea4553215c81a7213f87ab621:070cfbc7ededc388e1b48c50b41616e1:e9c42f1064e41b660c337011024de990$"
}
}
