{"frames": [

{
	"filename": "arrow_left",
	"frame": {"x":1,"y":1,"w":16,"h":12},
	"rotated": false,
	"trimmed": false,
	"spriteSourceSize": {"x":0,"y":0,"w":16,"h":12},
	"sourceSize": {"w":16,"h":12},
	"pivot": {"x":0.5,"y":0.5}
},
{
	"filename": "arrow_right",
	"frame": {"x":19,"y":1,"w":16,"h":12},
	"rotated": false,
	"trimmed": false,
	"spriteSourceSize": {"x":0,"y":0,"w":16,"h":12},
	"sourceSize": {"w":16,"h":12},
	"pivot": {"x":0.5,"y":0.5}
},
{
	"filename": "attack",
	"frame": {"x":37,"y":1,"w":23,"h":18},
	"rotated": false,
	"trimmed": false,
	"spriteSourceSize": {"x":0,"y":0,"w":23,"h":18},
	"sourceSize": {"w":23,"h":18},
	"pivot": {"x":0.5,"y":0.5}
},
{
	"filename": "bubble",
	"frame": {"x":62,"y":1,"w":14,"h":10},
	"rotated": false,
	"trimmed": false,
	"spriteSourceSize": {"x":0,"y":0,"w":14,"h":10},
	"sourceSize": {"w":14,"h":10},
	"pivot": {"x":0.5,"y":0.5}
},
{
	"filename": "door_01",
	"frame": {"x":78,"y":1,"w":17,"h":24},
	"rotated": false,
	"trimmed": false,
	"spriteSourceSize": {"x":0,"y":0,"w":17,"h":24},
	"sourceSize": {"w":17,"h":24},
	"pivot": {"x":0.5,"y":0.5}
},
{
	"filename": "door_02",
	"frame": {"x":97,"y":1,"w":16,"h":26},
	"rotated": false,
	"trimmed": false,
	"spriteSourceSize": {"x":0,"y":0,"w":16,"h":26},
	"sourceSize": {"w":16,"h":26},
	"pivot": {"x":0.5,"y":0.5}
},
{
	"filename": "door_03",
	"frame": {"x":115,"y":1,"w":16,"h":28},
	"rotated": false,
	"trimmed": false,
	"spriteSourceSize": {"x":0,"y":0,"w":16,"h":28},
	"sourceSize": {"w":16,"h":28},
	"pivot": {"x":0.5,"y":0.5}
},
{
	"filename": "door_04",
	"frame": {"x":133,"y":1,"w":16,"h":28},
	"rotated": false,
	"trimmed": false,
	"spriteSourceSize": {"x":0,"y":0,"w":16,"h":28},
	"sourceSize": {"w":16,"h":28},
	"pivot": {"x":0.5,"y":0.5}
},
{
	"filename": "door_05",
	"frame": {"x":151,"y":1,"w":16,"h":30},
	"rotated": false,
	"trimmed": false,
	"spriteSourceSize": {"x":0,"y":0,"w":16,"h":30},
	"sourceSize": {"w":16,"h":30},
	"pivot": {"x":0.5,"y":0.5}
},
{
	"filename": "forbidden",
	"frame": {"x":169,"y":1,"w":24,"h":24},
	"rotated": false,
	"trimmed": false,
	"spriteSourceSize": {"x":0,"y":0,"w":24,"h":24},
	"sourceSize": {"w":24,"h":24},
	"pivot": {"x":0.5,"y":0.5}
},
{
	"filename": "hand_01",
	"frame": {"x":195,"y":1,"w":26,"h":22},
	"rotated": false,
	"trimmed": false,
	"spriteSourceSize": {"x":0,"y":0,"w":26,"h":22},
	"sourceSize": {"w":26,"h":22},
	"pivot": {"x":0.5,"y":0.5}
},
{
	"filename": "hand_02",
	"frame": {"x":223,"y":1,"w":26,"h":20},
	"rotated": false,
	"trimmed": false,
	"spriteSourceSize": {"x":0,"y":0,"w":26,"h":20},
	"sourceSize": {"w":26,"h":20},
	"pivot": {"x":0.5,"y":0.5}
},
{
	"filename": "indicator_01",
	"frame": {"x":251,"y":1,"w":14,"h":10},
	"rotated": false,
	"trimmed": false,
	"spriteSourceSize": {"x":0,"y":0,"w":14,"h":10},
	"sourceSize": {"w":14,"h":10},
	"pivot": {"x":0.5,"y":0.5}
},
{
	"filename": "indicator_02",
	"frame": {"x":267,"y":1,"w":14,"h":10},
	"rotated": false,
	"trimmed": false,
	"spriteSourceSize": {"x":0,"y":0,"w":14,"h":10},
	"sourceSize": {"w":14,"h":10},
	"pivot": {"x":0.5,"y":0.5}
},
{
	"filename": "pick_01",
	"frame": {"x":283,"y":1,"w":30,"h":24},
	"rotated": false,
	"trimmed": false,
	"spriteSourceSize": {"x":0,"y":0,"w":30,"h":24},
	"sourceSize": {"w":30,"h":24},
	"pivot": {"x":0.5,"y":0.5}
},
{
	"filename": "pick_02",
	"frame": {"x":315,"y":1,"w":29,"h":22},
	"rotated": false,
	"trimmed": false,
	"spriteSourceSize": {"x":0,"y":0,"w":29,"h":22},
	"sourceSize": {"w":29,"h":22},
	"pivot": {"x":0.5,"y":0.5}
},
{
	"filename": "pick_03",
	"frame": {"x":346,"y":1,"w":28,"h":20},
	"rotated": false,
	"trimmed": false,
	"spriteSourceSize": {"x":0,"y":0,"w":28,"h":20},
	"sourceSize": {"w":28,"h":20},
	"pivot": {"x":0.5,"y":0.5}
},
{
	"filename": "pointer_01",
	"frame": {"x":376,"y":1,"w":22,"h":30},
	"rotated": false,
	"trimmed": false,
	"spriteSourceSize": {"x":0,"y":0,"w":22,"h":30},
	"sourceSize": {"w":22,"h":30},
	"pivot": {"x":0.5,"y":0.5}
},
{
	"filename": "pointer_02",
	"frame": {"x":400,"y":1,"w":17,"h":30},
	"rotated": false,
	"trimmed": false,
	"spriteSourceSize": {"x":0,"y":0,"w":17,"h":30},
	"sourceSize": {"w":17,"h":30},
	"pivot": {"x":0.5,"y":0.5}
},
{
	"filename": "pointer_03",
	"frame": {"x":419,"y":1,"w":15,"h":28},
	"rotated": false,
	"trimmed": false,
	"spriteSourceSize": {"x":0,"y":0,"w":15,"h":28},
	"sourceSize": {"w":15,"h":28},
	"pivot": {"x":0.5,"y":0.5}
},
{
	"filename": "pointer_04",
	"frame": {"x":436,"y":1,"w":13,"h":24},
	"rotated": false,
	"trimmed": false,
	"spriteSourceSize": {"x":0,"y":0,"w":13,"h":24},
	"sourceSize": {"w":13,"h":24},
	"pivot": {"x":0.5,"y":0.5}
},
{
	"filename": "pointer_05",
	"frame": {"x":451,"y":1,"w":16,"h":26},
	"rotated": false,
	"trimmed": false,
	"spriteSourceSize": {"x":0,"y":0,"w":16,"h":26},
	"sourceSize": {"w":16,"h":26},
	"pivot": {"x":0.5,"y":0.5}
},
{
	"filename": "pointer_06",
	"frame": {"x":469,"y":1,"w":19,"h":28},
	"rotated": false,
	"trimmed": false,
	"spriteSourceSize": {"x":0,"y":0,"w":19,"h":28},
	"sourceSize": {"w":19,"h":28},
	"pivot": {"x":0.5,"y":0.5}
},
{
	"filename": "ring",
	"frame": {"x":490,"y":1,"w":35,"h":20},
	"rotated": false,
	"trimmed": false,
	"spriteSourceSize": {"x":0,"y":0,"w":35,"h":20},
	"sourceSize": {"w":35,"h":20},
	"pivot": {"x":0.5,"y":0.5}
},
{
	"filename": "talk",
	"frame": {"x":527,"y":1,"w":31,"h":22},
	"rotated": false,
	"trimmed": false,
	"spriteSourceSize": {"x":0,"y":0,"w":31,"h":22},
	"sourceSize": {"w":31,"h":22},
	"pivot": {"x":0.5,"y":0.5}
}],
"meta": {
	"app": "http://www.codeandweb.com/texturepacker",
	"version": "1.0",
	"image": "cursor",
	"format": "RGBA8888",
	"size": {"w":559,"h":32},
	"scale": "1",
	"smartupdate": "$TexturePacker:SmartUpdate:d9fd425418427770d72aec25a3e94039:b65c163aef677efe7848227cfd6310ea:37014ffd8ec6da5e97798da7e9f64f6c$"
}
}
